State	Values	Age
CA	570	Under 5 Years
TX	202	Under 5 Years
NY	150	Under 5 Years
FL	114	Under 5 Years
IL	294	Under 5 Years
PA	237	Under 5 Years
CA	649	5 to 13 Years
TX	327	5 to 13 Years
NY	164	5 to 13 Years
FL	193	5 to 13 Years
IL	155	5 to 13 Years
PA	134	5 to 13 Years
CA	215	14 to 17 Years
TX	142	14 to 17 Years
NY	125	14 to 17 Years
FL	225	14 to 17 Years
IL	185	14 to 17 Years
PA	179	14 to 17 Years
CA	185	18 to 24 Years
TX	245	18 to 24 Years
NY	199	18 to 24 Years
FL	160	18 to 24 Years
IL	131	18 to 24 Years
PA	120	18 to 24 Years